<svg width="325" height="337" viewBox="0 0 325 337" fill="none" xmlns="http://www.w3.org/2000/svg">
<path opacity="0.35" d="M128.112 323.885C95.5565 350.826 46.1617 332.401 39.2018 290.72L1.46129 64.7049C-5.49869 23.0239 35.196 -10.6525 74.7118 4.08743L288.986 84.0145C328.502 98.7545 337.202 150.856 304.646 177.797L128.112 323.885Z" fill="#DCFFEC" fill-opacity="0.5"/>
</svg>
