<svg width="20" height="20" viewBox="0 0 20 20" fill="none" xmlns="http://www.w3.org/2000/svg">
<path d="M17.2188 2.78125L14.0938 2.03125C13.625 1.9375 13.1562 2.15625 12.9688 2.59375L11.5 6C11.3438 6.40625 11.4375 6.875 11.7812 7.125L13.4688 8.5C12.4062 10.6875 10.6562 12.4375 8.46875 13.5L7.09375 11.8125C6.84375 11.4688 6.375 11.375 5.96875 11.5312L2.5625 13C2.15625 13.1875 1.90625 13.6562 2 14.0938L2.75 17.25C2.84375 17.6875 3.21875 18 3.6875 18C11.5625 18 18 11.625 18 3.71875C18 3.25 17.6875 2.875 17.2188 2.78125ZM3.71875 17L3 13.9062L6.34375 12.4688L8.21875 14.75C11.4375 13.2188 13.1875 11.4688 14.7188 8.25L12.4375 6.375L13.875 3.03125L16.9688 3.75C16.9688 11.0625 11.0312 17 3.71875 17Z" fill="white"/>
</svg>
